1) # Write your query or mutation here
# here manufactures have so many models so display the manufactures model 
# according to the manufactures
{
  manufactures{
    id
    name
    manufacture_models
    {
      model_name
    }
  }
}

********************************
2) reletionship for manufactor type have manufactor name 
# Write your query or mutation here
{
  manufacture_models {
    id
    model_name
   	manufacture{
      name
    }
  }
}

********************************
3)query for create the manufactor 
# Write your query or mutation here
mutation {
 createManufacture( name: "Aditya", description : "Aditya Birla Group" ){
  id
}
}
********************************
4) edit the manufactor 

mutation{
  editManuFacture(id : 1, name : "Reliences",description:"Relicene group of ambani"){
    id
    name
  }
}
********************************
5) delete the manufacture 
mutation {
   deleteManuFacture(id : 8 ){
    id
  }
}

****************************************
6) query for the image upload demo for user upload  this is on postman 
operations => { "query": "mutation ($file: Upload!) { updateUserAvatar(avatar: $file, id : 11) { id  avatar} }" }
0 => file select and upload 
map => { "0": ["variables.file"]}


Control character error, possibly incorrectly encoded 
go to json https://jsonformatter.org/ and check the json is valida or not 
******************************************
7) create the manufacture model with the image in the postman done 
operations => { "query": "mutation ($file: Upload!) {  createModelManufacture(model_img: $file    manufacture_id:3, model_name: \"Iphone 6st\"    model_description: \"best product Iphone\") {    model_name    model_description    model_img  } }", "variables": { "file": null } }
0 => file_upload_from_postman 
map => { "0": ["variables.file"]}

****************************************
8) creatae model manufactor without files 
mutation($file: Upload!) {
  createModelManufacture(
    model_img: $file
    manufacture_id: 3
    model_name: "Iphone 6st"
    model_description: "best product Iphone"
  ) {
    model_name
    model_description
    model_img
  }
}
****************************************
9) update the manufacture model with image done 

operations => { "query": "mutation ($file: Upload!) {  editModelManufacture(model_img: $file    manufacture_id:3, model_name: \"Iphone 6seupdate\"    model_description: \"best product Iphone\" id:16) {    model_name    model_description    model_img  } }", "variables": { "file": null } }
0 => file_upload_from_postman 
map => { "0": ["variables.file"]}
======================
10) delete the manufacture model 

mutation{
  deleteModelManufacture(id:16){
    model_name
    model_description
    model_img
  }
}

